{
  "data": [
    {
      "id": "e348ec239a37b5481ab44fcf98acbb05",
      "createdAt": "2026-01-05T08:02:21.622Z",
      "projectId": "cmk05cowc0006nt0752qjtfj2",
      "environment": "default"
    },
    {
      "id": "59b6bff5645c95ea46d306c88e799862",
      "createdAt": "2026-01-05T08:02:21.622Z",
      "projectId": "cmk05cowc0006nt0752qjtfj2",
      "environment": "default"
    },
    {
      "id": "97ef278ce2a12f6aaa773a4295052e77",
      "createdAt": "2026-01-05T08:02:21.622Z",
      "projectId": "cmk05cowc0006nt0752qjtfj2",
      "environment": "default"
    },
    {
      "id": "64093c8b761a525480e7d5ab090fb376",
      "createdAt": "2026-01-05T08:02:21.622Z",
      "projectId": "cmk05cowc0006nt0752qjtfj2",
      "environment": "default"
    },
    {
      "id": "df3bf532e79a74adb8f1cb530d3f8729",
      "createdAt": "2026-01-05T07:56:45.566Z",
      "projectId": "cmk05cowc0006nt0752qjtfj2",
      "environment": "default"
    },
    {
      "id": "87180ce88f1416c5f52c64e3f3d03f62",
      "createdAt": "2026-01-05T07:56:45.565Z",
      "projectId": "cmk05cowc0006nt0752qjtfj2",
      "environment": "default"
    },
    {
      "id": "bfe659dcda901934d35178c1425450f8",
      "createdAt": "2026-01-05T07:56:45.562Z",
      "projectId": "cmk05cowc0006nt0752qjtfj2",
      "environment": "default"
    },
    {
      "id": "bdf7933ba05ba209f8b1bac74867e22e",
      "createdAt": "2026-01-05T07:56:45.560Z",
      "projectId": "cmk05cowc0006nt0752qjtfj2",
      "environment": "default"
    },
    {
      "id": "c5644dafd2220564dad79334edcafd5a",
      "createdAt": "2026-01-05T07:55:20.086Z",
      "projectId": "cmk05cowc0006nt0752qjtfj2",
      "environment": "default"
    },
    {
      "id": "cbda752d88cc8c149ddace9405500fad",
      "createdAt": "2026-01-05T07:55:20.085Z",
      "projectId": "cmk05cowc0006nt0752qjtfj2",
      "environment": "default"
    },
    {
      "id": "7a7c2a0007640be88db1c6fea8f854d1",
      "createdAt": "2026-01-05T07:55:20.083Z",
      "projectId": "cmk05cowc0006nt0752qjtfj2",
      "environment": "default"
    },
    {
      "id": "7d051470b8e08b57b3cb0f1f4cdec1b0",
      "createdAt": "2026-01-05T07:55:20.082Z",
      "projectId": "cmk05cowc0006nt0752qjtfj2",
      "environment": "default"
    },
    {
      "id": "1c96db43ad2ceab0434e36bf10f2fb68",
      "createdAt": "2026-01-05T07:54:19.570Z",
      "projectId": "cmk05cowc0006nt0752qjtfj2",
      "environment": "default"
    },
    {
      "id": "87c88d42bf723e374906a6c31572c935",
      "createdAt": "2026-01-05T07:54:10.922Z",
      "projectId": "cmk05cowc0006nt0752qjtfj2",
      "environment": "default"
    },
    {
      "id": "3fa2fbac968acd2f00aa42772c14b2a2",
      "createdAt": "2026-01-05T07:54:10.922Z",
      "projectId": "cmk05cowc0006nt0752qjtfj2",
      "environment": "default"
    },
    {
      "id": "3f1e179e7cbef884b3cd134c0c4be72f",
      "createdAt": "2026-01-05T07:54:10.922Z",
      "projectId": "cmk05cowc0006nt0752qjtfj2",
      "environment": "default"
    },
    {
      "id": "678ff64f4f0ffd19813e933db32ed3ba",
      "createdAt": "2026-01-05T07:54:10.809Z",
      "projectId": "cmk05cowc0006nt0752qjtfj2",
      "environment": "default"
    },
    {
      "id": "ae3e67f4dd0d6201e4377b16f58dfc7a",
      "createdAt": "2026-01-05T07:49:52.979Z",
      "projectId": "cmk05cowc0006nt0752qjtfj2",
      "environment": "default"
    },
    {
      "id": "12f0a6e76ff8b579893c6d2a7ebd8855",
      "createdAt": "2026-01-05T07:49:27.604Z",
      "projectId": "cmk05cowc0006nt0752qjtfj2",
      "environment": "default"
    },
    {
      "id": "d31e9fd03a32ab42cbbb48858729e8d3",
      "createdAt": "2026-01-05T07:49:27.602Z",
      "projectId": "cmk05cowc0006nt0752qjtfj2",
      "environment": "default"
    }
  ],
  "meta": {
    "totalItems": 43,
    "totalPages": 3,
    "page": 1,
    "limit": 20
  },
  "_notes": {
    "query_time": "2026-01-05T14:50:00Z",
    "observations": [
      "43 total sessions available",
      "Session IDs are 32-char hex strings (MD5 hashes)",
      "All sessions today (2026-01-05)",
      "Single project: cmk05cowc0006nt0752qjtfj2",
      "Minimal metadata - no trace count in list view"
    ]
  }
}
